%YAML 1.1
%TAG !u! tag:unity3d.com,2011:
--- !u!21 &2100000
Material:
  serializedVersion: 6
  m_ObjectHideFlags: 0
  m_CorrespondingSourceObject: {fileID: 0}
  m_PrefabInternal: {fileID: 0}
  m_Name: 12.fuku2
  m_Shader: {fileID: 4800000, guid: 9997fec0b6b9640458119b1670fa0d48, type: 3}
  m_ShaderKeywords: SELFSHADOW_ON SPHEREMAP_ADD _TOON
  m_LightmapFlags: 4
  m_EnableInstancingVariants: 0
  m_DoubleSidedGI: 0
  m_CustomRenderQueue: 2014
  stringTagMap: {}
  disabledShaderPasses: []
  m_SavedProperties:
    serializedVersion: 3
    m_TexEnvs:
    - _BumpMap:
        m_Texture: {fileID: 0}
        m_Scale: {x: 1, y: 1}
        m_Offset: {x: 0, y: 0}
    - _DetailAlbedoMap:
        m_Texture: {fileID: 0}
        m_Scale: {x: 1, y: 1}
        m_Offset: {x: 0, y: 0}
    - _DetailMask:
        m_Texture: {fileID: 0}
        m_Scale: {x: 1, y: 1}
        m_Offset: {x: 0, y: 0}
    - _DetailNormalMap:
        m_Texture: {fileID: 0}
        m_Scale: {x: 1, y: 1}
        m_Offset: {x: 0, y: 0}
    - _EmissionMap:
        m_Texture: {fileID: 0}
        m_Scale: {x: 1, y: 1}
        m_Offset: {x: 0, y: 0}
    - _MainTex:
        m_Texture: {fileID: 2800000, guid: e14618d6487c28a43a0c87e12e451840, type: 3}
        m_Scale: {x: 1, y: 1}
        m_Offset: {x: 0, y: 0}
    - _MetallicGlossMap:
        m_Texture: {fileID: 0}
        m_Scale: {x: 1, y: 1}
        m_Offset: {x: 0, y: 0}
    - _OcclusionMap:
        m_Texture: {fileID: 0}
        m_Scale: {x: 1, y: 1}
        m_Offset: {x: 0, y: 0}
    - _ParallaxMap:
        m_Texture: {fileID: 0}
        m_Scale: {x: 1, y: 1}
        m_Offset: {x: 0, y: 0}
    - _SphereCube:
        m_Texture: {fileID: 8900000, guid: 9894d040648d7f643839ec6b33313d46, type: 3}
        m_Scale: {x: 1, y: 1}
        m_Offset: {x: 0, y: 0}
    - _ToonTex:
        m_Texture: {fileID: 2800000, guid: 5a9419a8dabf99c488693cbc3f397140, type: 3}
        m_Scale: {x: 1, y: 1}
        m_Offset: {x: 0, y: 0}
    m_Floats:
    - _ALPower: 0
    - _AddLightToonCen: -0.1
    - _AddLightToonMin: 0.5
    - _AmbientToDiffuse: 5
    - _BumpScale: 1
    - _Cutoff: 0.5
    - _DetailNormalMapScale: 1
    - _DstBlend: 0
    - _EdgeScale: 0.001
    - _EdgeSize: 0.00070000003
    - _GlossMapScale: 1
    - _Glossiness: 0
    - _GlossyReflections: 1
    - _Metallic: 0
    - _Mode: 0
    - _NoShadowCasting: 0
    - _OcclusionStrength: 1
    - _Parallax: 0.02
    - _Revision: 2
    - _ShadowLum: 1.5
    - _Shininess: 0
    - _SmoothnessTextureChannel: 0
    - _SpecularHighlights: 1
    - _SrcBlend: 1
    - _TessEdgeLength: 5
    - _TessExtrusionAmount: 0
    - _TessPhongStrength: 0.5
    - _UVSec: 0
    - _ZWrite: 1
    m_Colors:
    - _Ambient: {r: 0.5, g: 0.5, b: 0.5, a: 0}
    - _Color: {r: 1, g: 1, b: 1, a: 1}
    - _EdgeColor: {r: 0.337, g: 0.745, b: 0.737, a: 1}
    - _EmissionColor: {r: 0, g: 0, b: 0, a: 0}
    - _Emissive: {r: 0, g: 0, b: 0, a: 0}
    - _Specular: {r: 0, g: 0, b: 0, a: 0}
    - _ToonTone: {r: 1, g: 0.5, b: 0.5, a: 0}
